5562.7662    NeI
5656.5664    NeI
5689.8163    NeI
5719.2248    NeI
5748.2985    NeI
5764.4188    NeI
5804.4496    NeI
5820.1558    NeI
5852.4878    NeI
5881.895     NeI
5944.8342    NeI
5975.534     NeI
6029.9971    NeI
6074.3377    NeI
6096.1631    NeI
6128.4499    NeI
6143.0626    NeI
6163.5939    NeI
6217.2812    NeI
6266.495     NeI
6304.789     NeI
6334.4278    NeI
6382.9917    NeI
6402.246     NeI
6506.5281    NeI
6532.8822    NeI
6598.9529    NeI
6678.2764    NeI
6717.043     NeI
6929.4673    NeI
7024.0504    NeI
7032.4131    NeI
7173.9381    NeI
7245.1666    NeI
7438.899     NeI
7488.8712    NeI
7535.7739    NeI
8136.4057    NeI